{ "backgroundcolor":"#ff00ff",
 "height":10,
 "layers":[],
 "orientation":"orthogonal",
 "properties":
    {

    },
 "tileheight":32,
 "tilesets":[],
 "tilewidth":32,
 "version":1,
 "width":10
}