{ "height":10,
 "layers":[],
 "orientation":"orthogonal",
 "properties":
    {

    },
 "tileheight":32,
 "tilesets":[
        {
         "firstgid":1,
         "image":"tsx\/tiles01_tiles8x5_size32x32_m0_s0.png",
         "imageheight":160,
         "imagewidth":256,
         "margin":0,
         "name":"tiles01_tiles8x5_size32x32_m0_s0",
         "properties":
            {

            },
         "spacing":0,
         "tileheight":32,
         "tilewidth":32
        }],
 "tilewidth":32,
 "version":1,
 "width":10
}