{ "height":10,
 "layers":[],
 "orientation":"orthogonal",
 "properties":
    {

    },
 "tileheight":32,
 "tilesets":[
        {
         "firstgid":1,
         "image":"tiles15_tiles8x2_size32x32_m5_s5.png",
         "imageheight":190,
         "imagewidth":301,
         "margin":5,
         "name":"tiles15_tiles8x2_size32x32_m5_s5",
         "properties":
            {

            },
         "spacing":5,
         "tileheight":32,
         "tilewidth":32
        }],
 "tilewidth":32,
 "version":1,
 "width":10
}